…
### **What is mean total number of steps taken per day?**

##### 1. Calculate the total number of steps taken per day.\
Using the pipe operator from the `dplyr` package, next code chunk will first group the data by `date`, and then generate the total number of steps by day, using the `summarise` and `sum` functions. We finally just add the argument `.groups` to the function so that the grouping structure is dropped. This can happen by default, but it prevents R from printing unnecessary messages.

```r
steps_byday <- activity %>%
    group_by(date) %>%
    summarise('total steps of the day' = sum(steps),
              .groups = 'drop')
steps_byday
```

```
## # A tibble: 61 x 2
##    date       `total steps of the day`
##    <chr>                         <int>
##  1 2012-10-01                       NA
##  2 2012-10-02                      126
##  3 2012-10-03                    11352
##  4 2012-10-04                    12116
##  5 2012-10-05                    13294
##  6 2012-10-06                    15420
##  7 2012-10-07                    11015
##  8 2012-10-08                       NA
##  9 2012-10-09                    12811
## 10 2012-10-10                     9900
## # ... with 51 more rows
```
…
### **What is the average daily activity pattern?**

##### 1. Make a time series plot (i.e. `type = "l"`) of the 5-minute interval (x-axis) and the average number of steps taken, averaged across all days (y-axis).\


```r
(steps_interval <- activity %>% 
   group_by(interval) %>% 
   summarise('mean' = mean(steps,
                           na.rm = T),
             .groups = 'drop'))
```

```
## # A tibble: 288 x 2
##    interval   mean
##       <int>  <dbl>
##  1        0 1.72  
##  2        5 0.340 
##  3       10 0.132 
##  4       15 0.151 
##  5       20 0.0755
##  6       25 2.09  
##  7       30 0.528 
##  8       35 0.868 
##  9       40 0     
## 10       45 1.47  
## # ... with 278 more rows
```
…
```r
(steps_byday.imp <- imputated %>%
  group_by(date) %>%
  summarise('total steps of the day' = sum(steps),
            .groups = 'drop'))
```

```
## # A tibble: 61 x 2
##    date       `total steps of the day`
##    <chr>                         <dbl>
##  1 2012-10-01                   10766.
##  2 2012-10-02                     126 
##  3 2012-10-03                   11352 
##  4 2012-10-04                   12116 
##  5 2012-10-05                   13294 
##  6 2012-10-06                   15420 
##  7 2012-10-07                   11015 
##  8 2012-10-08                   10766.
##  9 2012-10-09                   12811 
## 10 2012-10-10                    9900 
## # ... with 51 more rows
```
…
week_avgs <- imputated %>%
  group_by(interval, d.o.w) %>%
  summarise('mean' = mean(steps),
            .groups = 'drop')
week_avgs
```

```
## # A tibble: 576 x 3
##    interval d.o.w      mean
##       <int> <fct>     <dbl>
##  1        0 weekday 2.25   
##  2        0 weekend 0.215  
##  3        5 weekday 0.445  
##  4        5 weekend 0.0425 
##  5       10 weekday 0.173  
##  6       10 weekend 0.0165 
##  7       15 weekday 0.198  
##  8       15 weekend 0.0189 
##  9       20 weekday 0.0990 
## 10       20 weekend 0.00943
## # ... with 566 more rows
```
…
